<?xml version="1.0" encoding="UTF-8" standalone="no"?>
<!-- Created with Inkscape (http://www.inkscape.org/) -->

<svg
   xmlns:dc="http://purl.org/dc/elements/1.1/"
   xmlns:cc="http://creativecommons.org/ns#"
   xmlns:rdf="http://www.w3.org/1999/02/22-rdf-syntax-ns#"
   xmlns:svg="http://www.w3.org/2000/svg"
   xmlns="http://www.w3.org/2000/svg"
   xmlns:sodipodi="http://sodipodi.sourceforge.net/DTD/sodipodi-0.dtd"
   xmlns:inkscape="http://www.inkscape.org/namespaces/inkscape"
   id="svg2"
   version="1.1"
   inkscape:version="0.48.5 r10040"
   width="681.35999"
   height="845.36218"
   xml:space="preserve"
   sodipodi:docname="pendetif_Assur_dKal.svg"><title
     id="title3625">Pendentif de dKAL </title><metadata
     id="metadata8"><rdf:RDF><cc:Work
         rdf:about=""><dc:format>image/svg+xml</dc:format><dc:type
           rdf:resource="http://purl.org/dc/dcmitype/StillImage" /><dc:title>Pendentif de dKAL </dc:title><dc:date>2016-05-16</dc:date><dc:creator><cc:Agent><dc:title>Néhémie STRUPLER</dc:title></cc:Agent></dc:creator><cc:license
           rdf:resource="http://creativecommons.org/licenses/by-sa/3.0/" /><dc:description>Pendentif en lapis-lazuli représentant le
dieu d kal, découvert à aššur. dessin exécuté d’après photographie (Andrae 1924 : pl. 8f)</dc:description><cc:License
           rdf:resource="http://creativecommons.org/licenses/by-sa/4.0/" /></cc:Work><cc:License
          rdf:about="http://creativecommons.org/licenses/by-sa/4.0/"><cc:permits
           rdf:resource="http://creativecommons.org/ns#Reproduction" /><cc:permits
           rdf:resource="http://creativecommons.org/ns#Distribution" /><cc:requires
           rdf:resource="http://creativecommons.org/ns#Notice" /><cc:requires
           rdf:resource="http://creativecommons.org/ns#Attribution" /><cc:permits
           rdf:resource="http://creativecommons.org/ns#DerivativeWorks" /><cc:requires
           rdf:resource="http://creativecommons.org/ns#ShareAlike" /></cc:License></rdf:RDF></metadata><defs
     id="defs6"><clipPath
       clipPathUnits="userSpaceOnUse"
       id="clipPath16"><path
         d="m 0,2834.646 5669.292,0 L 5669.292,0 0,0 0,2834.646 z"
         id="path18"
         inkscape:connector-curvature="0" /></clipPath></defs><sodipodi:namedview
     pagecolor="#ffffff"
     bordercolor="#666666"
     borderopacity="1"
     objecttolerance="10"
     gridtolerance="10"
     guidetolerance="10"
     inkscape:pageopacity="0"
     inkscape:pageshadow="2"
     inkscape:window-width="1280"
     inkscape:window-height="974"
     id="namedview4"
     showgrid="false"
     fit-margin-top="0"
     fit-margin-left="0"
     fit-margin-right="0"
     fit-margin-bottom="0"
     inkscape:zoom="0.33925421"
     inkscape:cx="-791.37057"
     inkscape:cy="316.77933"
     inkscape:window-x="0"
     inkscape:window-y="26"
     inkscape:window-maximized="1"
     inkscape:current-layer="g10" /><g
     id="g10"
     inkscape:groupmode="layer"
     inkscape:label="Assur2"
     transform="matrix(1.25,0,0,-1.25,-3199.7228,2155.5896)"><g
       id="g12"><g
         id="g14"
         clip-path="url(#clipPath16)"><g
           id="g20"
           transform="translate(2637.9912,1405.0215)"><path
             d="M 0,0 -1.6,-1.2 C -2.244,0.155 -2.419,1.979 -2.399,3.999 L -0.8,4.133 0.4,5.199 C 1.135,4.067 1.62,2.686 2.8,2 L 1.611,0.621 1.6,-1.2 0,0 z"
             style="fill:#000000;fill-opacity:1;fill-rule:evenodd;stroke:none"
             id="path22"
             inkscape:connector-curvature="0" /></g><g
           id="g24"
           transform="translate(2817.5532,1608.8101)"><path
             d="m 0,0 0.829,1.8 0.4,0 -0.2,-1.4 0.999,-1 C 1.223,-2.211 0.739,-2.852 0.029,-3.8 l -1.401,1.133 -1.799,0.067 c -0.216,1.549 1.019,1.647 1.2,2.8 L 0,0 z"
             style="fill:#000000;fill-opacity:1;fill-rule:evenodd;stroke:none"
             id="path26"
             inkscape:connector-curvature="0" /></g><g
           id="g28"
           transform="translate(2663.0264,1164.4707)"><path
             d="M 0,0 -1.036,-1.437"
             style="fill:#000000;fill-opacity:1;fill-rule:evenodd;stroke:none"
             id="path30"
             inkscape:connector-curvature="0" /></g><g
           id="g32"
           transform="translate(2660.79,1166.6338)"><path
             d="m 0,0 1.8,-0.399 1.4,1.2"
             style="fill:#000000;fill-opacity:1;fill-rule:evenodd;stroke:none"
             id="path34"
             inkscape:connector-curvature="0" /></g><g
           id="g36"
           transform="translate(2803.5156,1624.9424)"><path
             d="m 0,0 c -3.372,4.659 -9.172,7.06 -12.32,11.826 -2.034,3.08 -9.601,6.822 -14.888,10.956 -3.39,2.65 -4.658,4.131 -8.523,2.683"
             style="fill:none;stroke:#000000;stroke-width:1.11099994;stroke-linecap:round;stroke-linejoin:miter;stroke-miterlimit:4;stroke-opacity:1;stroke-dasharray:none"
             id="path38"
             inkscape:connector-curvature="0" /></g><g
           id="g40"
           transform="translate(2752.9854,1607.6104)"><path
             d="M 0,0 C -2.745,-5.815 12.462,-16.518 16.178,-13.767 20.239,-10.76 12.621,-3.766 9.456,-0.786 6.636,1.868 3.629,2.438 0,0"
             style="fill:none;stroke:#000000;stroke-width:2.14899993;stroke-linecap:round;stroke-linejoin:miter;stroke-miterlimit:4;stroke-opacity:1;stroke-dasharray:none"
             id="path42"
             inkscape:connector-curvature="0" /></g><g
           id="g44"
           transform="translate(2758.9849,1532.0142)"><path
             d="M 0,0 C 0.537,-6.414 -7.544,-11.092 -12.866,-13.666"
             style="fill:none;stroke:#000000;stroke-width:1.47300005;stroke-linecap:round;stroke-linejoin:miter;stroke-miterlimit:4;stroke-opacity:1;stroke-dasharray:none"
             id="path46"
             inkscape:connector-curvature="0" /></g><g
           id="g48"
           transform="translate(2647.5908,1527.0146)"><path
             d="M 0,0 C 2.345,2.82 10.251,3.072 11.296,0.145 12.884,-4.309 2.576,-4.269 -0.046,-0.779"
             style="fill:none;stroke:#000000;stroke-width:2.70099998;stroke-linecap:round;stroke-linejoin:miter;stroke-miterlimit:4;stroke-opacity:1;stroke-dasharray:none"
             id="path50"
             inkscape:connector-curvature="0" /></g><g
           id="g52"
           transform="translate(2734.5859,1511.6152)"><path
             d="M 0,0 C -2.271,3.883 -1.995,9.263 -2.399,14"
             style="fill:none;stroke:#000000;stroke-width:0.98100001;stroke-linecap:round;stroke-linejoin:miter;stroke-miterlimit:4;stroke-opacity:1;stroke-dasharray:none"
             id="path54"
             inkscape:connector-curvature="0" /></g><g
           id="g56"
           transform="translate(2884.9785,1508.6157)"><path
             d="M 0,0 C 1.984,-3.628 4.467,-6.848 7.632,-7.171 16.889,-8.118 22.008,10.497 10.296,11.381 5.285,11.76 -1.928,5.887 0,0"
             style="fill:none;stroke:#000000;stroke-width:2.38100004;stroke-linecap:round;stroke-linejoin:miter;stroke-miterlimit:4;stroke-opacity:1;stroke-dasharray:none"
             id="path58"
             inkscape:connector-curvature="0" /></g><g
           id="g60"
           transform="translate(2647.0132,1514.5381)"><path
             d="m 0,0 c -2.236,-2.788 -8.695,-2.209 -8.489,0.37 0.207,2.59 6.581,1.616 8.867,0.307"
             style="fill:none;stroke:#000000;stroke-width:1.75300002;stroke-linecap:round;stroke-linejoin:miter;stroke-miterlimit:4;stroke-opacity:1;stroke-dasharray:none"
             id="path62"
             inkscape:connector-curvature="0" /></g><g
           id="g64"
           transform="translate(2714.5874,1355.0244)"><path
             d="M 0,0 C 5.301,-0.659 10.69,-0.244 15.999,-0.334"
             style="fill:none;stroke:#000000;stroke-width:1.03900003;stroke-linecap:round;stroke-linejoin:miter;stroke-miterlimit:4;stroke-opacity:1;stroke-dasharray:none"
             id="path66"
             inkscape:connector-curvature="0" /></g><g
           id="g68"
           transform="translate(2724.1865,1315.626)"><path
             d="M 0,0 C 3.847,-0.523 7.67,-0.646 11.6,-0.4"
             style="fill:none;stroke:#000000;stroke-width:0.63599998;stroke-linecap:round;stroke-linejoin:miter;stroke-miterlimit:4;stroke-opacity:1;stroke-dasharray:none"
             id="path70"
             inkscape:connector-curvature="0" /></g><g
           id="g72"
           transform="translate(2711.7876,1200.6318)"><path
             d="M 0,0 C 26.02,-3.987 56.142,-6.106 82.195,-7.899"
             style="fill:none;stroke:#000000;stroke-width:1.88900006;stroke-linecap:round;stroke-linejoin:miter;stroke-miterlimit:4;stroke-opacity:1;stroke-dasharray:none"
             id="path74"
             inkscape:connector-curvature="0" /></g><g
           id="g76"
           transform="translate(2793.9829,1192.7324)"><path
             d="m 0,0 c 20.719,3.616 52.308,-0.357 75.119,3.57 6.369,1.097 15.517,3.883 20.858,1.955"
             style="fill:none;stroke:#000000;stroke-width:2.38199997;stroke-linecap:round;stroke-linejoin:miter;stroke-miterlimit:4;stroke-opacity:1;stroke-dasharray:none"
             id="path78"
             inkscape:connector-curvature="0" /></g><g
           id="g80"
           transform="translate(2793.9829,1192.7324)"><path
             d="M 0,0 C -2.987,-11.709 -7.836,-23.046 -15.299,-32.698"
             style="fill:none;stroke:#000000;stroke-width:1.68900001;stroke-linecap:round;stroke-linejoin:miter;stroke-miterlimit:4;stroke-opacity:1;stroke-dasharray:none"
             id="path82"
             inkscape:connector-curvature="0" /></g><g
           id="g84"
           transform="translate(2678.9492,1131.1963)"><path
             d="M 0,0 C 0.972,-3.305 11.314,-10.591 14.644,-10.079"
             style="fill:none;stroke:#000000;stroke-width:1.49300003;stroke-linecap:round;stroke-linejoin:miter;stroke-miterlimit:4;stroke-opacity:1;stroke-dasharray:none"
             id="path86"
             inkscape:connector-curvature="0" /></g><g
           id="g88"
           transform="translate(2678.9492,1131.1963)"><path
             d="m 0,0 c -10.436,-3.466 -20.502,8.058 -28.642,16.128 -4.6,4.56 -6.436,11.069 -13.908,15.209 -7.393,4.097 -13.899,3.898 -25.315,5.308 -10.678,1.317 -12.354,9.365 -11.278,21.394 0.128,1.43 0.706,2.862 0.97,4.356 1.438,8.14 0.599,17.257 1.621,24.75 1.299,9.517 4.97,18.676 5.982,26.769 1.286,10.282 2.332,25.844 0.738,36.493 -0.306,2.048 -0.742,3.456 -1.085,3.692 -2.464,1.688 -5.897,-2.714 -7.646,-3.84 -4.347,-2.8 -10.055,-5.474 -12.036,-6.65 -1.704,-1.012 -5.026,-6.172 -8.036,-6.161 -3.624,0.015 -4.689,6.738 -6.39,10.207 -10.869,22.168 -12.236,40.144 -12.742,63.854 -0.19,8.882 0.131,15.681 1.125,22.716 0.914,6.465 1.802,10.428 4.65,14.068 1.644,2.101 4.199,3.497 6.45,6.413 1.42,1.84 2.288,4.61 4.197,6.294 6.409,5.653 18.447,-2.296 25.665,-4.243 6.629,-1.788 9.684,-3.452 16.78,-3.382 8.808,0.087 16.976,6.974 17.942,20.45"
             style="fill:none;stroke:#000000;stroke-width:2.704;stroke-linecap:round;stroke-linejoin:miter;stroke-miterlimit:4;stroke-opacity:1;stroke-dasharray:none"
             id="path90"
             inkscape:connector-curvature="0" /></g><g
           id="g92"
           transform="translate(2587.3076,1462.3135)"><path
             d="m 0,0 c -3.489,-10.533 -16.396,-9.833 -18.468,-1.143 -0.948,3.976 2.716,8.855 3.856,13.647"
             style="fill:none;stroke:#000000;stroke-width:2.98600006;stroke-linecap:round;stroke-linejoin:miter;stroke-miterlimit:4;stroke-opacity:1;stroke-dasharray:none"
             id="path94"
             inkscape:connector-curvature="0" /></g><g
           id="g96"
           transform="translate(2573.8184,1476.7891)"><path
             d="M 0,0 C -2.002,2.827 -14.355,5.139 -8.223,14.228"
             style="fill:none;stroke:#000000;stroke-width:3.36500001;stroke-linecap:round;stroke-linejoin:miter;stroke-miterlimit:4;stroke-opacity:1;stroke-dasharray:none"
             id="path98"
             inkscape:connector-curvature="0" /></g><g
           id="g100"
           transform="translate(2568.478,1506.7891)"><path
             d="M 0,0 C -1.345,2.569 1.182,6.897 2.731,10.418 5.149,15.916 2.724,20.531 9.317,20.597"
             style="fill:none;stroke:#000000;stroke-width:3.273;stroke-linecap:round;stroke-linejoin:miter;stroke-miterlimit:4;stroke-opacity:1;stroke-dasharray:none"
             id="path102"
             inkscape:connector-curvature="0" /></g><g
           id="g104"
           transform="translate(2577.7949,1527.3857)"><path
             d="M 0,0 C -4.625,9.707 3.678,19.538 13.953,18.751"
             style="fill:none;stroke:#000000;stroke-width:2.92700005;stroke-linecap:round;stroke-linejoin:miter;stroke-miterlimit:4;stroke-opacity:1;stroke-dasharray:none"
             id="path106"
             inkscape:connector-curvature="0" /></g><g
           id="g108"
           transform="translate(2591.748,1546.1367)"><path
             d="M 0,0 C 5.802,16.774 14.723,33.305 26.014,47.105"
             style="fill:none;stroke:#000000;stroke-width:2.91599989;stroke-linecap:round;stroke-linejoin:miter;stroke-miterlimit:4;stroke-opacity:1;stroke-dasharray:none"
             id="path110"
             inkscape:connector-curvature="0" /></g><g
           id="g112"
           transform="translate(2617.7617,1593.2417)"><path
             d="m 0,0 c 3.227,8.972 7.781,16.135 16.212,20.39 3.754,1.894 5.808,3.268 8.398,3.336 C 36.247,24.03 36.192,10.72 29.889,0.032 27.424,-4.148 25.055,-8.59 21.482,-12.307"
             style="fill:none;stroke:#000000;stroke-width:3.1730001;stroke-linecap:round;stroke-linejoin:miter;stroke-miterlimit:4;stroke-opacity:1;stroke-dasharray:none"
             id="path114"
             inkscape:connector-curvature="0" /></g><g
           id="g116"
           transform="translate(2610.4639,1526.7402)"><path
             d="M 0,0 C 3.268,-4.256 7.266,-7.811 11.023,-11.604"
             style="fill:none;stroke:#000000;stroke-width:2.2190001;stroke-linecap:round;stroke-linejoin:miter;stroke-miterlimit:4;stroke-opacity:1;stroke-dasharray:none"
             id="path118"
             inkscape:connector-curvature="0" /></g><g
           id="g120"
           transform="translate(2725.7866,1509.4824)"><path
             d="m 0,0 c -10.685,4.552 -23.294,6.976 -31.386,6.912 -5.607,-0.045 -13.658,-2.966 -15.6,4.041 -1.219,4.397 0.663,15.381 -2.156,20.09 -6.809,11.372 -18.131,6.664 -26.094,-1.748 C -85.378,18.58 -98.562,17.566 -104.299,5.654"
             style="fill:none;stroke:#000000;stroke-width:3.19199991;stroke-linecap:round;stroke-linejoin:miter;stroke-miterlimit:4;stroke-opacity:1;stroke-dasharray:none"
             id="path122"
             inkscape:connector-curvature="0" /></g><g
           id="g124"
           transform="translate(2727.9863,1510.2153)"><path
             d="M 0,0 C -0.822,6.727 -5.052,17.176 1.2,21.599"
             style="fill:none;stroke:#000000;stroke-width:3.2650001;stroke-linecap:round;stroke-linejoin:miter;stroke-miterlimit:4;stroke-opacity:1;stroke-dasharray:none"
             id="path126"
             inkscape:connector-curvature="0" /></g><g
           id="g128"
           transform="translate(2720.4023,1556.4438)"><path
             d="m 0,0 c -23.247,2.454 -6.766,20.369 -0.32,32.145 7.867,14.372 13.376,25.206 23.094,38.938 3.564,5.034 9.309,12.107 13.18,14.291"
             style="fill:none;stroke:#000000;stroke-width:2.10100007;stroke-linecap:round;stroke-linejoin:miter;stroke-miterlimit:4;stroke-opacity:1;stroke-dasharray:none"
             id="path130"
             inkscape:connector-curvature="0" /></g><g
           id="g132"
           transform="translate(2756.3564,1641.8179)"><path
             d="m 0,0 c 0.871,0.775 -1.386,3.036 -1.584,4.81 -0.71,6.365 17.494,16.458 23.651,13.379"
             style="fill:none;stroke:#000000;stroke-width:2.31699991;stroke-linecap:round;stroke-linejoin:miter;stroke-miterlimit:4;stroke-opacity:1;stroke-dasharray:none"
             id="path134"
             inkscape:connector-curvature="0" /></g><g
           id="g136"
           transform="translate(2778.4238,1660.0073)"><path
             d="m 0,0 c 0.825,4.036 -0.542,7.53 0.379,10.76 1.643,5.762 7.596,7.736 13.146,11.699 19.794,14.134 40.932,28.566 62.512,37.607 8.345,3.496 15.238,4.455 22.818,1.457 2.759,-1.091 4.903,-0.95 6.966,-4.326"
             style="fill:none;stroke:#000000;stroke-width:2.30299997;stroke-linecap:round;stroke-linejoin:miter;stroke-miterlimit:4;stroke-opacity:1;stroke-dasharray:none"
             id="path138"
             inkscape:connector-curvature="0" /></g><g
           id="g140"
           transform="translate(2876.3789,1323.5254)"><path
             d="m 0,0 c 1.229,-14.81 4.813,-29.419 7.707,-43.909 1.817,-9.101 3.033,-17.775 5.327,-25.804 1.586,-5.552 2.683,-11.447 4.917,-16.857 1.137,-2.753 3.807,-5.04 4.684,-8.67"
             style="fill:none;stroke:#000000;stroke-width:1.68200004;stroke-linecap:round;stroke-linejoin:miter;stroke-miterlimit:4;stroke-opacity:1;stroke-dasharray:none"
             id="path142"
             inkscape:connector-curvature="0" /></g><g
           id="g144"
           transform="translate(2899.0137,1228.2852)"><path
             d="M 0,0 C 0.494,-0.26 0.763,-0.467 1.112,-0.693"
             style="fill:none;stroke:#000000;stroke-width:2.54500008;stroke-linecap:round;stroke-linejoin:miter;stroke-miterlimit:4;stroke-opacity:1;stroke-dasharray:none"
             id="path146"
             inkscape:connector-curvature="0" /></g><g
           id="g148"
           transform="translate(2900.126,1227.5918)"><path
             d="M 0,0 C 0.837,-3.962 1.959,-10.351 0.688,-14.322"
             style="fill:none;stroke:#000000;stroke-width:2.64199996;stroke-linecap:round;stroke-linejoin:miter;stroke-miterlimit:4;stroke-opacity:1;stroke-dasharray:none"
             id="path150"
             inkscape:connector-curvature="0" /></g><g
           id="g152"
           transform="translate(2813.7471,1626.8906)"><path
             d="m 0,0 c -1.798,2.551 1.587,8.399 3.131,9.371 10.76,6.767 26.742,19.346 35.326,37.169 5.452,11.321 18.494,29.605 26.829,38.811 1.664,1.839 1.451,3.411 4.345,3.263"
             style="fill:none;stroke:#000000;stroke-width:2.7420001;stroke-linecap:round;stroke-linejoin:miter;stroke-miterlimit:4;stroke-opacity:1;stroke-dasharray:none"
             id="path154"
             inkscape:connector-curvature="0" /></g><g
           id="g156"
           transform="translate(2778.4238,1660.0073)"><path
             d="M 0,0 C 10.231,-10.372 24.55,-23.768 34.861,-34.041"
             style="fill:none;stroke:#000000;stroke-width:2.89599991;stroke-linecap:round;stroke-linejoin:miter;stroke-miterlimit:4;stroke-opacity:1;stroke-dasharray:none"
             id="path158"
             inkscape:connector-curvature="0" /></g><g
           id="g160"
           transform="translate(2815.5947,1626.8906)"><path
             d="m 0,0 c 28.378,-10.263 48.897,26.136 60.052,45.473 4.82,8.356 8.687,18.72 12.657,28.279 1.455,3.504 4.197,11.005 -3.193,15.393"
             style="fill:none;stroke:#000000;stroke-width:2.51099992;stroke-linecap:round;stroke-linejoin:miter;stroke-miterlimit:4;stroke-opacity:1;stroke-dasharray:none"
             id="path162"
             inkscape:connector-curvature="0" /></g><g
           id="g164"
           transform="translate(2885.5654,1591.8359)"><path
             d="m 0,0 c 1.024,1.363 2.431,6.875 2.8,11.06 0.974,11.039 4.454,24.491 6.31,35.821 0.971,5.927 1.415,15.072 1.683,20.461 0.915,18.442 14.436,41.236 -2.24,52.931 -1.683,1.181 -9.47,5.774 -9.47,5.774"
             style="fill:none;stroke:#000000;stroke-width:2.55500007;stroke-linecap:round;stroke-linejoin:miter;stroke-miterlimit:4;stroke-opacity:1;stroke-dasharray:none"
             id="path166"
             inkscape:connector-curvature="0" /></g><g
           id="g168"
           transform="translate(2817.5532,1608.8101)"><path
             d="M 0,0 C -1.98,4.435 0.781,12.533 -3.113,16.695"
             style="fill:none;stroke:#000000;stroke-width:2.68899989;stroke-linecap:round;stroke-linejoin:miter;stroke-miterlimit:4;stroke-opacity:1;stroke-dasharray:none"
             id="path170"
             inkscape:connector-curvature="0" /></g><g
           id="g172"
           transform="translate(2756.3564,1641.8179)"><path
             d="M 0,0 C 16.919,-15.698 35.011,-31.4 55.826,-41.507"
             style="fill:none;stroke:#000000;stroke-width:2.74499989;stroke-linecap:round;stroke-linejoin:miter;stroke-miterlimit:4;stroke-opacity:1;stroke-dasharray:none"
             id="path174"
             inkscape:connector-curvature="0" /></g><g
           id="g176"
           transform="translate(2812.1821,1600.3105)"><path
             d="M 0,0 C 2.089,1.252 2.929,3.757 4,5.833"
             style="fill:none;stroke:#000000;stroke-width:3.03299999;stroke-linecap:round;stroke-linejoin:miter;stroke-miterlimit:4;stroke-opacity:1;stroke-dasharray:none"
             id="path178"
             inkscape:connector-curvature="0" /></g><g
           id="g180"
           transform="translate(2747.9854,1547.4136)"><path
             d="M 0,0 C 2.49,-0.616 4.944,-0.564 7.399,-1.044"
             style="fill:none;stroke:#000000;stroke-width:3.33599997;stroke-linecap:round;stroke-linejoin:miter;stroke-miterlimit:4;stroke-opacity:1;stroke-dasharray:none"
             id="path182"
             inkscape:connector-curvature="0" /></g><g
           id="g184"
           transform="translate(2756.0093,1546.2896)"><path
             d="M 0,0 C 0.513,4.964 1.453,13.008 0.375,18.123"
             style="fill:none;stroke:#000000;stroke-width:2.16599989;stroke-linecap:round;stroke-linejoin:miter;stroke-miterlimit:4;stroke-opacity:1;stroke-dasharray:none"
             id="path186"
             inkscape:connector-curvature="0" /></g><g
           id="g188"
           transform="translate(2830.3809,1488.5313)"><path
             d="M 0,0 C 3.646,2.042 10.345,2.443 14.314,3.72"
             style="fill:none;stroke:#000000;stroke-width:3.16199994;stroke-linecap:round;stroke-linejoin:miter;stroke-miterlimit:4;stroke-opacity:1;stroke-dasharray:none"
             id="path190"
             inkscape:connector-curvature="0" /></g><g
           id="g192"
           transform="translate(2862.9121,1524.1479)"><path
             d="m 0,0 c 2.529,13.883 12.676,28.605 15.645,42.328 1.773,8.198 5.774,15.304 6.695,19.948 0.451,2.281 1.291,3.482 0.313,5.412"
             style="fill:none;stroke:#000000;stroke-width:2.35800004;stroke-linecap:round;stroke-linejoin:miter;stroke-miterlimit:4;stroke-opacity:1;stroke-dasharray:none"
             id="path194"
             inkscape:connector-curvature="0" /></g><g
           id="g196"
           transform="translate(2885.5654,1591.8359)"><path
             d="M 0,0 C -0.793,0.211 -1.634,0.117 -2.416,0.385"
             style="fill:none;stroke:#000000;stroke-width:3.66899991;stroke-linecap:round;stroke-linejoin:miter;stroke-miterlimit:4;stroke-opacity:1;stroke-dasharray:none"
             id="path198"
             inkscape:connector-curvature="0" /></g><g
           id="g200"
           transform="translate(2883.1494,1592.2207)"><path
             d="m 0,0 c -3.681,-9.128 -14.824,-12.45 -24.646,-18.323 -6.083,-3.638 -16.974,-10.556 -24.875,-15.675 -5.222,-3.384 -10.631,-7.324 -12.174,-11.017 -2.349,-5.623 -0.579,-16.964 9.665,-14.99 4.652,0.897 6.845,3.903 12.048,2.994 6.602,-1.155 5.668,-6.782 1.122,-9.653 -4.653,-2.938 -15.671,-4.504 -19.251,-5.885"
             style="fill:none;stroke:#000000;stroke-width:2.70900011;stroke-linecap:round;stroke-linejoin:miter;stroke-miterlimit:4;stroke-opacity:1;stroke-dasharray:none"
             id="path202"
             inkscape:connector-curvature="0" /></g><g
           id="g204"
           transform="translate(2720.4023,1556.4438)"><path
             d="M 0,0 C 6.041,11.232 24.901,-0.455 28.983,13.568"
             style="fill:none;stroke:#000000;stroke-width:2.77900004;stroke-linecap:round;stroke-linejoin:miter;stroke-miterlimit:4;stroke-opacity:1;stroke-dasharray:none"
             id="path206"
             inkscape:connector-curvature="0" /></g><g
           id="g208"
           transform="translate(2720.4023,1556.4438)"><path
             d="M 0,0 C 0.922,-2.978 1.687,-5.766 3.626,-8.3"
             style="fill:none;stroke:#000000;stroke-width:2.2980001;stroke-linecap:round;stroke-linejoin:miter;stroke-miterlimit:4;stroke-opacity:1;stroke-dasharray:none"
             id="path210"
             inkscape:connector-curvature="0" /></g><g
           id="g212"
           transform="translate(2724.0288,1548.1436)"><path
             d="M 0,0 C 6.399,-2.316 16.151,-0.065 22.743,-0.699"
             style="fill:none;stroke:#000000;stroke-width:2.88000011;stroke-linecap:round;stroke-linejoin:miter;stroke-miterlimit:4;stroke-opacity:1;stroke-dasharray:none"
             id="path214"
             inkscape:connector-curvature="0" /></g><g
           id="g216"
           transform="translate(2812.1821,1600.3105)"><path
             d="m 0,0 c 0.376,-6.864 -8.059,-19.426 2.38,-18.889 2.078,0.108 5.641,1.418 7.21,2.191 7.051,3.475 5.021,14.685 10.674,20.418 9.812,9.952 27.077,5.209 30.658,-5.457 1.799,-5.356 -4.66,-13.726 -13.207,-16.704 -16.477,-5.744 -37.214,-3.234 -47.018,-18.182 -4.716,-7.189 -1.759,-27.665 5.077,-35.881 3.823,-4.596 11.916,-7.316 17.082,-8.135"
             style="fill:none;stroke:#000000;stroke-width:2.60599995;stroke-linecap:round;stroke-linejoin:miter;stroke-miterlimit:4;stroke-opacity:1;stroke-dasharray:none"
             id="path218"
             inkscape:connector-curvature="0" /></g><g
           id="g220"
           transform="translate(2883.1494,1592.2207)"><path
             d="m 0,0 c -2.247,11.093 -5.43,20.516 -11.907,27.986 -6.389,7.368 -16.779,7.226 -27.373,4.003 -10.282,-3.128 -18.533,-6.869 -25.287,-15"
             style="fill:none;stroke:#000000;stroke-width:2.7190001;stroke-linecap:round;stroke-linejoin:miter;stroke-miterlimit:4;stroke-opacity:1;stroke-dasharray:none"
             id="path222"
             inkscape:connector-curvature="0" /></g><g
           id="g224"
           transform="translate(2617.7617,1593.2417)"><path
             d="M 0,0 C 5.553,-6.872 14.485,-7.608 21.482,-12.307"
             style="fill:none;stroke:#000000;stroke-width:2.65899992;stroke-linecap:round;stroke-linejoin:miter;stroke-miterlimit:4;stroke-opacity:1;stroke-dasharray:none"
             id="path226"
             inkscape:connector-curvature="0" /></g><g
           id="g228"
           transform="translate(2591.748,1546.1367)"><path
             d="m 0,0 c 3.074,-0.714 4.811,-3.64 6.261,-6.747 2.366,-5.07 7.907,-11.384 12.455,-12.649"
             style="fill:none;stroke:#000000;stroke-width:2.53900003;stroke-linecap:round;stroke-linejoin:miter;stroke-miterlimit:4;stroke-opacity:1;stroke-dasharray:none"
             id="path230"
             inkscape:connector-curvature="0" /></g><g
           id="g232"
           transform="translate(2610.4639,1526.7402)"><path
             d="M 0,0 C 7.37,19.169 19.277,36.146 28.78,54.194"
             style="fill:none;stroke:#000000;stroke-width:3.18600011;stroke-linecap:round;stroke-linejoin:miter;stroke-miterlimit:4;stroke-opacity:1;stroke-dasharray:none"
             id="path234"
             inkscape:connector-curvature="0" /></g><g
           id="g236"
           transform="translate(2730.1436,1532.4331)"><path
             d="M 0,0 C 7.538,4.47 21.053,3.491 25.205,12.417"
             style="fill:none;stroke:#000000;stroke-width:2.86299992;stroke-linecap:round;stroke-linejoin:miter;stroke-miterlimit:4;stroke-opacity:1;stroke-dasharray:none"
             id="path238"
             inkscape:connector-curvature="0" /></g><g
           id="g240"
           transform="translate(2724.0288,1548.1436)"><path
             d="M 0,0 C -4.085,-5.312 3.776,-9.837 5.529,-14.529"
             style="fill:none;stroke:#000000;stroke-width:2.20700002;stroke-linecap:round;stroke-linejoin:miter;stroke-miterlimit:4;stroke-opacity:1;stroke-dasharray:none"
             id="path242"
             inkscape:connector-curvature="0" /></g><g
           id="g244"
           transform="translate(2621.8467,1516.3105)"><path
             d="M 0,0 C -4.076,-5.14 -2.524,-14.215 -2.304,-18.254"
             style="fill:none;stroke:#000000;stroke-width:3.921;stroke-linecap:round;stroke-linejoin:miter;stroke-miterlimit:4;stroke-opacity:1;stroke-dasharray:none"
             id="path246"
             inkscape:connector-curvature="0" /></g><g
           id="g248"
           transform="translate(2620.4292,1497.3472)"><path
             d="m 0,0 c 2.658,-2.304 8.201,2.728 11.563,4.069 0,0 6.337,5.147 10.413,1.425 L 27.47,3.19 c 3.876,-5.636 1.936,-15.077 3.673,-23.826 0.74,-3.731 2.818,-11.293 2.818,-11.293"
             style="fill:none;stroke:#000000;stroke-width:2.65300012;stroke-linecap:round;stroke-linejoin:miter;stroke-miterlimit:4;stroke-opacity:1;stroke-dasharray:none"
             id="path250"
             inkscape:connector-curvature="0" /></g><g
           id="g252"
           transform="translate(2654.3906,1465.418)"><path
             d="M 0,0 C 9.831,-5.104 27.48,-6.856 38.12,-3.718 46.352,-1.291 62.263,2.245 68.368,9"
             style="fill:none;stroke:#000000;stroke-width:2.75999999;stroke-linecap:round;stroke-linejoin:miter;stroke-miterlimit:4;stroke-opacity:1;stroke-dasharray:none"
             id="path254"
             inkscape:connector-curvature="0" /></g><g
           id="g256"
           transform="translate(2678.7363,1461.3701)"><path
             d="m 0,0 c 3.3,4.96 15.501,16.247 20.104,17.077 6.189,1.116 15.755,-5.763 23.22,-4.213"
             style="fill:none;stroke:#000000;stroke-width:3.78200006;stroke-linecap:round;stroke-linejoin:miter;stroke-miterlimit:4;stroke-opacity:1;stroke-dasharray:none"
             id="path258"
             inkscape:connector-curvature="0" /></g><g
           id="g260"
           transform="translate(2723.2148,1475.1582)"><path
             d="M 0,0 C 3.288,2.105 14.99,4.2 16.531,8.019"
             style="fill:none;stroke:#000000;stroke-width:3.18000007;stroke-linecap:round;stroke-linejoin:miter;stroke-miterlimit:4;stroke-opacity:1;stroke-dasharray:none"
             id="path262"
             inkscape:connector-curvature="0" /></g><g
           id="g264"
           transform="translate(2739.7461,1483.1768)"><path
             d="M 0,0 C -1.239,0.895 -3.184,0.48 -4.148,1.811 0.09,5.873 -1.464,12.03 -2.71,17.239"
             style="fill:none;stroke:#000000;stroke-width:2.82200003;stroke-linecap:round;stroke-linejoin:miter;stroke-miterlimit:4;stroke-opacity:1;stroke-dasharray:none"
             id="path266"
             inkscape:connector-curvature="0" /></g><g
           id="g268"
           transform="translate(2577.7949,1527.3857)"><path
             d="M 0,0 C 4.661,-3.876 12.979,-10.612 16.405,-16.038"
             style="fill:none;stroke:#000000;stroke-width:3.19899988;stroke-linecap:round;stroke-linejoin:miter;stroke-miterlimit:4;stroke-opacity:1;stroke-dasharray:none"
             id="path270"
             inkscape:connector-curvature="0" /></g><g
           id="g272"
           transform="translate(2845.6191,1492.251)"><path
             d="M 0,0 C 2.889,-0.885 11.134,-1.043 11.16,-5.134"
             style="fill:none;stroke:#000000;stroke-width:2.1559999;stroke-linecap:round;stroke-linejoin:miter;stroke-miterlimit:4;stroke-opacity:1;stroke-dasharray:none"
             id="path274"
             inkscape:connector-curvature="0" /></g><g
           id="g276"
           transform="translate(2891.5781,1477.8174)"><path
             d="m 0,0 c 0.549,4.53 -2.227,9.907 1.737,11.002 10.077,2.785 21.908,11.389 18.719,22.214 -1.465,4.972 -4.931,12.461 -7.551,16.065 -2.58,3.55 -7.353,5.394 -11.481,4.453 -8.766,-1.998 -19.964,-8.622 -30.09,-7.403"
             style="fill:none;stroke:#000000;stroke-width:2.64199996;stroke-linecap:round;stroke-linejoin:miter;stroke-miterlimit:4;stroke-opacity:1;stroke-dasharray:none"
             id="path278"
             inkscape:connector-curvature="0" /></g><g
           id="g280"
           transform="translate(2862.9121,1524.1479)"><path
             d="M 0,0 C -6.645,-9.3 -6.572,-23.501 -16.675,-30.532"
             style="fill:none;stroke:#000000;stroke-width:2.37700009;stroke-linecap:round;stroke-linejoin:miter;stroke-miterlimit:4;stroke-opacity:1;stroke-dasharray:none"
             id="path282"
             inkscape:connector-curvature="0" /></g><g
           id="g284"
           transform="translate(2584.5947,1494.8735)"><path
             d="M 0,0 C 2.889,0.153 4.796,1.423 3.199,4.476"
             style="fill:none;stroke:#000000;stroke-width:2.48699999;stroke-linecap:round;stroke-linejoin:miter;stroke-miterlimit:4;stroke-opacity:1;stroke-dasharray:none"
             id="path286"
             inkscape:connector-curvature="0" /></g><g
           id="g288"
           transform="translate(2571.3374,1515.6016)"><path
             d="M 0,0 C 3.195,-3.75 12.334,-11.833 16.482,-14.71"
             style="fill:none;stroke:#000000;stroke-width:2.62899995;stroke-linecap:round;stroke-linejoin:miter;stroke-miterlimit:4;stroke-opacity:1;stroke-dasharray:none"
             id="path290"
             inkscape:connector-curvature="0" /></g><g
           id="g292"
           transform="translate(2594.5938,1510.8154)"><path
             d="M 0,0 C 2.868,-4.805 1.048,-11.582 -5.6,-9.244"
             style="fill:none;stroke:#000000;stroke-width:3.02200007;stroke-linecap:round;stroke-linejoin:miter;stroke-miterlimit:4;stroke-opacity:1;stroke-dasharray:none"
             id="path294"
             inkscape:connector-curvature="0" /></g><g
           id="g296"
           transform="translate(2580.0752,1484.7539)"><path
             d="M 0,0 C 3.665,-4.641 -0.127,-7.354 -4.68,-7.937"
             style="fill:none;stroke:#000000;stroke-width:2.56200004;stroke-linecap:round;stroke-linejoin:miter;stroke-miterlimit:4;stroke-opacity:1;stroke-dasharray:none"
             id="path298"
             inkscape:connector-curvature="0" /></g><g
           id="g300"
           transform="translate(2587.3076,1462.3135)"><path
             d="M 0,0 C 4.606,-1.462 8.301,-5.282 13.343,-5.295"
             style="fill:none;stroke:#000000;stroke-width:3.05900002;stroke-linecap:round;stroke-linejoin:miter;stroke-miterlimit:4;stroke-opacity:1;stroke-dasharray:none"
             id="path302"
             inkscape:connector-curvature="0" /></g><g
           id="g304"
           transform="translate(2600.6504,1457.0186)"><path
             d="M 0,0 C 4.172,10.87 13.978,18.803 20.884,28.158"
             style="fill:none;stroke:#000000;stroke-width:2.58899999;stroke-linecap:round;stroke-linejoin:miter;stroke-miterlimit:4;stroke-opacity:1;stroke-dasharray:none"
             id="path306"
             inkscape:connector-curvature="0" /></g><g
           id="g308"
           transform="translate(2621.5347,1485.1763)"><path
             d="M 0,0 C -1.126,3.704 -4.616,6.98 -3.792,11.24"
             style="fill:none;stroke:#000000;stroke-width:2.9920001;stroke-linecap:round;stroke-linejoin:miter;stroke-miterlimit:4;stroke-opacity:1;stroke-dasharray:none"
             id="path310"
             inkscape:connector-curvature="0" /></g><g
           id="g312"
           transform="translate(2616.5928,1499.916)"><path
             d="M 0,0 C -7.782,3.018 -14.57,11.835 -23.102,13.559"
             style="fill:none;stroke:#000000;stroke-width:2.94199991;stroke-linecap:round;stroke-linejoin:miter;stroke-miterlimit:4;stroke-opacity:1;stroke-dasharray:none"
             id="path314"
             inkscape:connector-curvature="0" /></g><g
           id="g316"
           transform="translate(2580.0752,1484.7539)"><path
             d="M 0,0 C 3.45,2.003 5.854,4.479 3.008,8.551"
             style="fill:none;stroke:#000000;stroke-width:2.69799995;stroke-linecap:round;stroke-linejoin:miter;stroke-miterlimit:4;stroke-opacity:1;stroke-dasharray:none"
             id="path318"
             inkscape:connector-curvature="0" /></g><g
           id="g320"
           transform="translate(2583.3887,1494.3345)"><path
             d="M 0,0 C -5.641,2.277 -10.371,8.927 -14.911,12.455"
             style="fill:none;stroke:#000000;stroke-width:2.96199989;stroke-linecap:round;stroke-linejoin:miter;stroke-miterlimit:4;stroke-opacity:1;stroke-dasharray:none"
             id="path322"
             inkscape:connector-curvature="0" /></g><g
           id="g324"
           transform="translate(2568.478,1506.7891)"><path
             d="M 0,0 C -3.749,-3.454 -2.111,-9.401 -2.549,-13.973"
             style="fill:none;stroke:#000000;stroke-width:3.23000002;stroke-linecap:round;stroke-linejoin:miter;stroke-miterlimit:4;stroke-opacity:1;stroke-dasharray:none"
             id="path326"
             inkscape:connector-curvature="0" /></g><g
           id="g328"
           transform="translate(2621.5347,1485.1763)"><path
             d="M 0,0 C 4.641,0.354 5.874,-4.337 6.223,-8.001"
             style="fill:none;stroke:#000000;stroke-width:2.41499996;stroke-linecap:round;stroke-linejoin:miter;stroke-miterlimit:4;stroke-opacity:1;stroke-dasharray:none"
             id="path330"
             inkscape:connector-curvature="0" /></g><g
           id="g332"
           transform="translate(2627.7578,1477.1748)"><path
             d="M 0,0 C 2.598,-0.718 5.573,-2.16 5.334,-5.357"
             style="fill:none;stroke:#000000;stroke-width:2.09599996;stroke-linecap:round;stroke-linejoin:miter;stroke-miterlimit:4;stroke-opacity:1;stroke-dasharray:none"
             id="path334"
             inkscape:connector-curvature="0" /></g><g
           id="g336"
           transform="translate(2633.0918,1471.8174)"><path
             d="M 0,0 C 7.394,-1.037 13.879,-5.771 21.299,-6.399"
             style="fill:none;stroke:#000000;stroke-width:2.05999994;stroke-linecap:round;stroke-linejoin:miter;stroke-miterlimit:4;stroke-opacity:1;stroke-dasharray:none"
             id="path338"
             inkscape:connector-curvature="0" /></g><g
           id="g340"
           transform="translate(2739.7461,1483.1768)"><path
             d="M 0,0 C 12.384,2.91 26.156,2.882 38.904,5.173"
             style="fill:none;stroke:#000000;stroke-width:2.70600009;stroke-linecap:round;stroke-linejoin:miter;stroke-miterlimit:4;stroke-opacity:1;stroke-dasharray:none"
             id="path342"
             inkscape:connector-curvature="0" /></g><g
           id="g344"
           transform="translate(2778.6504,1488.3501)"><path
             d="M 0,0 C 0.093,0.605 0.146,1.041 0.2,1.4"
             style="fill:none;stroke:#000000;stroke-width:4.05900002;stroke-linecap:round;stroke-linejoin:miter;stroke-miterlimit:4;stroke-opacity:1;stroke-dasharray:none"
             id="path346"
             inkscape:connector-curvature="0" /></g><g
           id="g348"
           transform="translate(2738.4473,1502.4004)"><path
             d="M 0,0 C 12.147,-7.449 27.458,-7.973 40.403,-12.65"
             style="fill:none;stroke:#000000;stroke-width:2.63599992;stroke-linecap:round;stroke-linejoin:miter;stroke-miterlimit:4;stroke-opacity:1;stroke-dasharray:none"
             id="path350"
             inkscape:connector-curvature="0" /></g><g
           id="g352"
           transform="translate(2614.8291,1449.4917)"><path
             d="M 0,0 C 6.519,-13.58 19.491,-24.797 22.362,-40.337"
             style="fill:none;stroke:#000000;stroke-width:2.23000002;stroke-linecap:round;stroke-linejoin:miter;stroke-miterlimit:4;stroke-opacity:1;stroke-dasharray:none"
             id="path354"
             inkscape:connector-curvature="0" /></g><g
           id="g356"
           transform="translate(2742.3999,1361.875)"><path
             d="m 0,0 c 6.208,-1.935 17.342,0.255 23.962,0.517 3.069,0.122 2.763,0.761 4.507,1.325 20.873,6.751 35.694,20.445 47.786,36.694 12.614,16.949 14.536,30.409 17.377,51.065 1.329,9.66 8.833,21.711 16.893,30.954 0.489,0.56 0.495,1.665 0.826,2.285"
             style="fill:none;stroke:#000000;stroke-width:2.0079999;stroke-linecap:round;stroke-linejoin:miter;stroke-miterlimit:4;stroke-opacity:1;stroke-dasharray:none"
             id="path358"
             inkscape:connector-curvature="0" /></g><g
           id="g360"
           transform="translate(2853.751,1484.7148)"><path
             d="m 0,0 c -10.086,1.48 -16.551,-6.344 -22.294,-11.202 -3.438,-2.908 -7.246,-5.309 -10.325,-8.133 -7.087,-6.501 -9.298,-11.311 -18.908,-8.744 -1.534,0.409 -4.067,0.852 -5.083,1.442 -2.185,1.268 -5.196,5.426 -8.366,7.444 -5.119,3.258 -10.333,8.034 -14.878,12.618 -1.798,1.814 -3.311,3.04 -4.779,5.077"
             style="fill:none;stroke:#000000;stroke-width:2.09299994;stroke-linecap:round;stroke-linejoin:miter;stroke-miterlimit:4;stroke-opacity:1;stroke-dasharray:none"
             id="path362"
             inkscape:connector-curvature="0" /></g><g
           id="g364"
           transform="translate(2580.0752,1484.7539)"><path
             d="M 0,0 C -5.296,0.048 -9.24,4.465 -13.346,6.922"
             style="fill:none;stroke:#000000;stroke-width:2.03600001;stroke-linecap:round;stroke-linejoin:miter;stroke-miterlimit:4;stroke-opacity:1;stroke-dasharray:none"
             id="path366"
             inkscape:connector-curvature="0" /></g><g
           id="g368"
           transform="translate(2830.3809,1488.5313)"><path
             d="M 0,0 C -16.826,0.088 -34.565,1.395 -51.53,1.219"
             style="fill:none;stroke:#000000;stroke-width:2.95000005;stroke-linecap:round;stroke-linejoin:miter;stroke-miterlimit:4;stroke-opacity:1;stroke-dasharray:none"
             id="path370"
             inkscape:connector-curvature="0" /></g><g
           id="g372"
           transform="translate(2778.6504,1488.3501)"><path
             d="m 0,0 c 0.997,-1.634 4.59,-2.171 6.976,-3.263 6.049,-2.769 10.107,-6.733 16.37,-9.299 3.948,-1.618 9.675,-4.711 14.99,0.314 2.973,2.81 4.694,6.582 8.367,8.653 2.097,1.182 4.618,0.881 5.027,3.776"
             style="fill:none;stroke:#000000;stroke-width:2.53200006;stroke-linecap:round;stroke-linejoin:miter;stroke-miterlimit:4;stroke-opacity:1;stroke-dasharray:none"
             id="path374"
             inkscape:connector-curvature="0" /></g><g
           id="g376"
           transform="translate(2717.4976,1312.1914)"><path
             d="m 0,0 c 25.751,-2.799 51.25,-0.732 79.42,-0.978 16.63,-0.144 29.504,-0.213 43.583,5.292 2.318,0.907 4.289,2.795 6.794,2.292"
             style="fill:none;stroke:#000000;stroke-width:2.14700007;stroke-linecap:round;stroke-linejoin:miter;stroke-miterlimit:4;stroke-opacity:1;stroke-dasharray:none"
             id="path378"
             inkscape:connector-curvature="0" /></g><g
           id="g380"
           transform="translate(2847.2949,1318.7979)"><path
             d="M 0,0 C 1.18,2.134 3.241,3.325 5.357,4.246"
             style="fill:none;stroke:#000000;stroke-width:2.07999992;stroke-linecap:round;stroke-linejoin:miter;stroke-miterlimit:4;stroke-opacity:1;stroke-dasharray:none"
             id="path382"
             inkscape:connector-curvature="0" /></g><g
           id="g384"
           transform="translate(2852.6523,1323.0439)"><path
             d="m 0,0 c 3.139,6.417 14.268,13.69 18.874,20.23 2.54,3.606 1.579,7.657 5.323,7.875"
             style="fill:none;stroke:#000000;stroke-width:1.97099996;stroke-linecap:round;stroke-linejoin:miter;stroke-miterlimit:4;stroke-opacity:1;stroke-dasharray:none"
             id="path386"
             inkscape:connector-curvature="0" /></g><g
           id="g388"
           transform="translate(2876.8496,1351.1494)"><path
             d="m 0,0 c 0.791,8.112 4.587,22.325 7.403,29.972 3.583,9.73 6.013,21.12 9.913,31.911 5.58,15.43 9.07,28.791 9.37,44.288 0.224,11.64 -4.395,14.734 -11.957,20.497"
             style="fill:none;stroke:#000000;stroke-width:2.13899994;stroke-linecap:round;stroke-linejoin:miter;stroke-miterlimit:4;stroke-opacity:1;stroke-dasharray:none"
             id="path390"
             inkscape:connector-curvature="0" /></g><g
           id="g392"
           transform="translate(2891.5781,1477.8174)"><path
             d="M 0,0 C -10.472,3.827 -25.966,8.27 -37.827,6.897"
             style="fill:none;stroke:#000000;stroke-width:2.93000007;stroke-linecap:round;stroke-linejoin:miter;stroke-miterlimit:4;stroke-opacity:1;stroke-dasharray:none"
             id="path394"
             inkscape:connector-curvature="0" /></g><g
           id="g396"
           transform="translate(2742.3999,1361.875)"><path
             d="M 0,0 C -8.506,-2.028 -17.702,1.441 -26.407,0.126"
             style="fill:none;stroke:#000000;stroke-width:2.47199988;stroke-linecap:round;stroke-linejoin:miter;stroke-miterlimit:4;stroke-opacity:1;stroke-dasharray:none"
             id="path398"
             inkscape:connector-curvature="0" /></g><g
           id="g400"
           transform="translate(2600.6504,1457.0186)"><path
             d="M 0,0 C 2.439,-1.625 4.599,-3.565 7.758,-3.369"
             style="fill:none;stroke:#000000;stroke-width:2.704;stroke-linecap:round;stroke-linejoin:miter;stroke-miterlimit:4;stroke-opacity:1;stroke-dasharray:none"
             id="path402"
             inkscape:connector-curvature="0" /></g><g
           id="g404"
           transform="translate(2608.4082,1453.6494)"><path
             d="M 0,0 C 6.352,7.987 13.244,15.31 19.35,23.525"
             style="fill:none;stroke:#000000;stroke-width:1.98099995;stroke-linecap:round;stroke-linejoin:miter;stroke-miterlimit:4;stroke-opacity:1;stroke-dasharray:none"
             id="path406"
             inkscape:connector-curvature="0" /></g><g
           id="g408"
           transform="translate(2608.4082,1453.6494)"><path
             d="M 0,0 C -1.294,-4.508 3.328,-4.357 6.421,-4.158"
             style="fill:none;stroke:#000000;stroke-width:2.43300009;stroke-linecap:round;stroke-linejoin:miter;stroke-miterlimit:4;stroke-opacity:1;stroke-dasharray:none"
             id="path410"
             inkscape:connector-curvature="0" /></g><g
           id="g412"
           transform="translate(2614.8291,1449.4917)"><path
             d="M 0,0 C 6.715,6.573 14.416,13.31 18.263,22.326"
             style="fill:none;stroke:#000000;stroke-width:2.19899988;stroke-linecap:round;stroke-linejoin:miter;stroke-miterlimit:4;stroke-opacity:1;stroke-dasharray:none"
             id="path414"
             inkscape:connector-curvature="0" /></g><g
           id="g416"
           transform="translate(2587.3076,1462.3135)"><path
             d="M 0,0 C -2.658,4.875 -9.481,10.765 -13.489,14.476"
             style="fill:none;stroke:#000000;stroke-width:3.06200004;stroke-linecap:round;stroke-linejoin:miter;stroke-miterlimit:4;stroke-opacity:1;stroke-dasharray:none"
             id="path418"
             inkscape:connector-curvature="0" /></g><g
           id="g420"
           transform="translate(2696.5732,1361.5771)"><path
             d="M 0,0 C 0.75,0.385 6.436,0.48 7.246,0.654"
             style="fill:none;stroke:#000000;stroke-width:3.89599991;stroke-linecap:round;stroke-linejoin:miter;stroke-miterlimit:4;stroke-opacity:1;stroke-dasharray:none"
             id="path422"
             inkscape:connector-curvature="0" /></g><g
           id="g424"
           transform="translate(2708.4512,1361.2549)"><path
             d="M 0,0 C 1.261,0.658 8.499,1.125 9.917,1.207"
             style="fill:none;stroke:#000000;stroke-width:3.21199989;stroke-linecap:round;stroke-linejoin:miter;stroke-miterlimit:4;stroke-opacity:1;stroke-dasharray:none"
             id="path426"
             inkscape:connector-curvature="0" /></g><g
           id="g428"
           transform="translate(2742.3999,1361.875)"><path
             d="m 0,0 c -9.674,14.667 -6.765,32.305 -8.025,49.186 -0.208,2.795 -0.484,8.007 -1.471,8.85 -3.352,2.862 -17.921,-6.921 -19.442,-8.002 -10.189,-7.241 -20.744,-14.442 -31.994,-18.365 -9.547,-3.329 -15.006,-1.435 -28.077,2.878"
             style="fill:none;stroke:#000000;stroke-width:2.41700006;stroke-linecap:round;stroke-linejoin:miter;stroke-miterlimit:4;stroke-opacity:1;stroke-dasharray:none"
             id="path430"
             inkscape:connector-curvature="0" /></g><g
           id="g432"
           transform="translate(2633.8916,1218.5313)"><path
             d="M 0,0 C 3.275,-2.614 6.449,-5.505 10.392,-7.207"
             style="fill:none;stroke:#000000;stroke-width:3.21099997;stroke-linecap:round;stroke-linejoin:miter;stroke-miterlimit:4;stroke-opacity:1;stroke-dasharray:none"
             id="path434"
             inkscape:connector-curvature="0" /></g><g
           id="g436"
           transform="translate(2644.2832,1211.3242)"><path
             d="m 0,0 c 5.799,8.381 10.483,30.787 12.896,41.694 1.693,7.65 2.109,17.312 2.371,22.969 0.116,2.506 -1.836,11.209 0.137,13.267 3.077,3.208 13.899,-2.164 14.083,5.396 0.056,2.307 -0.737,4.422 -1.408,7.583 -0.898,4.238 -0.546,8.755 -1.908,10.609"
             style="fill:none;stroke:#000000;stroke-width:2.79900002;stroke-linecap:round;stroke-linejoin:miter;stroke-miterlimit:4;stroke-opacity:1;stroke-dasharray:none"
             id="path438"
             inkscape:connector-curvature="0" /></g><g
           id="g440"
           transform="translate(2670.4546,1312.8418)"><path
             d="m 0,0 c -5.11,0.504 -12.624,3.574 -16.98,3.176 -0.69,-0.064 -1.827,-1.094 -2.374,-0.863 -2.891,1.215 -1.96,4.496 -3.243,7.471"
             style="fill:none;stroke:#000000;stroke-width:3.227;stroke-linecap:round;stroke-linejoin:miter;stroke-miterlimit:4;stroke-opacity:1;stroke-dasharray:none"
             id="path442"
             inkscape:connector-curvature="0" /></g><g
           id="g444"
           transform="translate(2647.8574,1322.626)"><path
             d="M 0,0 C -6.182,-1.324 -12.186,6.43 -9.266,12.332"
             style="fill:none;stroke:#000000;stroke-width:3.08899999;stroke-linecap:round;stroke-linejoin:miter;stroke-miterlimit:4;stroke-opacity:1;stroke-dasharray:none"
             id="path446"
             inkscape:connector-curvature="0" /></g><g
           id="g448"
           transform="translate(2637.3394,1337.8682)"><path
             d="M 0,0 C -5.241,0.822 -7.382,6.457 -3.014,10.022"
             style="fill:none;stroke:#000000;stroke-width:2.94700003;stroke-linecap:round;stroke-linejoin:miter;stroke-miterlimit:4;stroke-opacity:1;stroke-dasharray:none"
             id="path450"
             inkscape:connector-curvature="0" /></g><g
           id="g452"
           transform="translate(2634.5918,1348.9248)"><path
             d="m 0,0 c -5.527,0.079 -6.877,5.39 -2.313,8.832 3.23,2.437 8.164,7.441 10.618,9.516 3.046,2.576 7.44,4.572 7.93,7.765 1.158,7.544 -11.673,16.986 -1.436,18.284"
             style="fill:none;stroke:#000000;stroke-width:3.04999995;stroke-linecap:round;stroke-linejoin:miter;stroke-miterlimit:4;stroke-opacity:1;stroke-dasharray:none"
             id="path454"
             inkscape:connector-curvature="0" /></g><g
           id="g456"
           transform="translate(2651.8906,1397.2217)"><path
             d="M 0,0 C -3.641,3.197 -7.829,6.23 -12.289,8.421"
             style="fill:none;stroke:#000000;stroke-width:3.31800008;stroke-linecap:round;stroke-linejoin:miter;stroke-miterlimit:4;stroke-opacity:1;stroke-dasharray:none"
             id="path458"
             inkscape:connector-curvature="0" /></g><g
           id="g460"
           transform="translate(2678.9492,1131.1963)"><path
             d="M 0,0 C 3.468,2.526 6.848,5.143 9.239,8.772"
             style="fill:none;stroke:#000000;stroke-width:2.73600006;stroke-linecap:round;stroke-linejoin:miter;stroke-miterlimit:4;stroke-opacity:1;stroke-dasharray:none"
             id="path462"
             inkscape:connector-curvature="0" /></g><g
           id="g464"
           transform="translate(2688.1143,1150.7061)"><path
             d="M 0,0 C -7.396,6.506 -19.543,5.239 -25.088,13.765"
             style="fill:none;stroke:#000000;stroke-width:2.67199993;stroke-linecap:round;stroke-linejoin:miter;stroke-miterlimit:4;stroke-opacity:1;stroke-dasharray:none"
             id="path466"
             inkscape:connector-curvature="0" /></g><g
           id="g468"
           transform="translate(2670.4546,1312.8418)"><path
             d="M 0,0 C 3.427,0.786 7.252,-2.089 10.535,0.385"
             style="fill:none;stroke:#000000;stroke-width:2.52099991;stroke-linecap:round;stroke-linejoin:miter;stroke-miterlimit:4;stroke-opacity:1;stroke-dasharray:none"
             id="path470"
             inkscape:connector-curvature="0" /></g><g
           id="g472"
           transform="translate(2650.0083,1393.6396)"><path
             d="m 0,0 c 5.54,-4.909 13.626,-12.009 19.672,-15.727 l 14.909,-11.755 c -3.412,-6.371 -1.961,-14.436 -1.896,-21.981 0.137,-15.796 -1.751,-28.125 -1.738,-29.752"
             style="fill:none;stroke:#000000;stroke-width:2.29200006;stroke-linecap:round;stroke-linejoin:miter;stroke-miterlimit:4;stroke-opacity:1;stroke-dasharray:none"
             id="path474"
             inkscape:connector-curvature="0" /></g><g
           id="g476"
           transform="translate(2635.7915,1349.1797)"><path
             d="M 0,0 C 4.042,2.504 8.86,4.72 12.399,7.645"
             style="fill:none;stroke:#000000;stroke-width:3.01399994;stroke-linecap:round;stroke-linejoin:miter;stroke-miterlimit:4;stroke-opacity:1;stroke-dasharray:none"
             id="path478"
             inkscape:connector-curvature="0" /></g><g
           id="g480"
           transform="translate(2638.6919,1336.8262)"><path
             d="M 0,0 C 4.967,3.915 12.235,6.694 17.199,10.398"
             style="fill:none;stroke:#000000;stroke-width:2.96199989;stroke-linecap:round;stroke-linejoin:miter;stroke-miterlimit:4;stroke-opacity:1;stroke-dasharray:none"
             id="path482"
             inkscape:connector-curvature="0" /></g><g
           id="g484"
           transform="translate(2647.6987,1323.2012)"><path
             d="M 0,0 C 3.035,2.337 8.568,8.934 11.603,11.313"
             style="fill:none;stroke:#000000;stroke-width:3.09200001;stroke-linecap:round;stroke-linejoin:miter;stroke-miterlimit:4;stroke-opacity:1;stroke-dasharray:none"
             id="path486"
             inkscape:connector-curvature="0" /></g><g
           id="g488"
           transform="translate(2681.2559,1313.4932)"><path
             d="M 0,0 C 1.694,-1.119 3.915,-1.43 5.733,-0.417"
             style="fill:none;stroke:#000000;stroke-width:2.95099998;stroke-linecap:round;stroke-linejoin:miter;stroke-miterlimit:4;stroke-opacity:1;stroke-dasharray:none"
             id="path490"
             inkscape:connector-curvature="0" /></g><g
           id="g492"
           transform="translate(2686.9888,1313.0762)"><path
             d="M 0,0 C -0.084,16.655 5.318,33.773 0.95,50.147"
             style="fill:none;stroke:#000000;stroke-width:2.61800003;stroke-linecap:round;stroke-linejoin:miter;stroke-miterlimit:4;stroke-opacity:1;stroke-dasharray:none"
             id="path494"
             inkscape:connector-curvature="0" /></g><g
           id="g496"
           transform="translate(2686.9888,1313.0762)"><path
             d="M 0,0 C 2.048,-1.354 4.69,-0.813 6.989,-1.471"
             style="fill:none;stroke:#000000;stroke-width:3.32399988;stroke-linecap:round;stroke-linejoin:miter;stroke-miterlimit:4;stroke-opacity:1;stroke-dasharray:none"
             id="path498"
             inkscape:connector-curvature="0" /></g><g
           id="g500"
           transform="translate(2696.5732,1361.5771)"><path
             d="M 0,0 C -2.427,1.18 -8.459,5.734 -12.847,4.811"
             style="fill:none;stroke:#000000;stroke-width:2.71300006;stroke-linecap:round;stroke-linejoin:miter;stroke-miterlimit:4;stroke-opacity:1;stroke-dasharray:none"
             id="path502"
             inkscape:connector-curvature="0" /></g><g
           id="g504"
           transform="translate(2700.9668,1313.8369)"><path
             d="M 0,0 C 0.671,7.577 3.545,38.926 2.159,46.315"
             style="fill:none;stroke:#000000;stroke-width:2.96499991;stroke-linecap:round;stroke-linejoin:miter;stroke-miterlimit:4;stroke-opacity:1;stroke-dasharray:none"
             id="path506"
             inkscape:connector-curvature="0" /></g><g
           id="g508"
           transform="translate(2696.5732,1361.5771)"><path
             d="M 0,0 C -0.665,-15.78 -0.933,-31.668 -0.535,-47.551"
             style="fill:none;stroke:#000000;stroke-width:2.86999989;stroke-linecap:round;stroke-linejoin:miter;stroke-miterlimit:4;stroke-opacity:1;stroke-dasharray:none"
             id="path510"
             inkscape:connector-curvature="0" /></g><g
           id="g512"
           transform="translate(2711.5503,1311.7607)"><path
             d="M 0,0 C 1.929,-0.682 4.493,-1.662 5.947,0.431"
             style="fill:none;stroke:#000000;stroke-width:3.79299998;stroke-linecap:round;stroke-linejoin:miter;stroke-miterlimit:4;stroke-opacity:1;stroke-dasharray:none"
             id="path514"
             inkscape:connector-curvature="0" /></g><g
           id="g516"
           transform="translate(2717.4976,1312.1914)"><path
             d="M 0,0 C -2.75,16.425 -6.51,32.6 -9.046,49.063"
             style="fill:none;stroke:#000000;stroke-width:3.25600004;stroke-linecap:round;stroke-linejoin:miter;stroke-miterlimit:4;stroke-opacity:1;stroke-dasharray:none"
             id="path518"
             inkscape:connector-curvature="0" /></g><g
           id="g520"
           transform="translate(2708.4512,1361.2549)"><path
             d="M 0,0 C -1.121,0.948 -2.717,0.899 -4.063,0.568"
             style="fill:none;stroke:#000000;stroke-width:3.72399998;stroke-linecap:round;stroke-linejoin:miter;stroke-miterlimit:4;stroke-opacity:1;stroke-dasharray:none"
             id="path522"
             inkscape:connector-curvature="0" /></g><g
           id="g524"
           transform="translate(2852.6523,1323.0439)"><path
             d="M 0,0 C 7.672,-1.048 16.181,-1.392 23.727,0.481"
             style="fill:none;stroke:#000000;stroke-width:1.28100002;stroke-linecap:round;stroke-linejoin:miter;stroke-miterlimit:4;stroke-opacity:1;stroke-dasharray:none"
             id="path526"
             inkscape:connector-curvature="0" /></g><g
           id="g528"
           transform="translate(2876.3789,1323.5254)"><path
             d="M 0,0 C -0.625,9.147 1.435,18.768 0.471,27.624"
             style="fill:none;stroke:#000000;stroke-width:2.49799991;stroke-linecap:round;stroke-linejoin:miter;stroke-miterlimit:4;stroke-opacity:1;stroke-dasharray:none"
             id="path530"
             inkscape:connector-curvature="0" /></g><g
           id="g532"
           transform="translate(2693.978,1311.6055)"><path
             d="M 0,0 C 3.045,0.132 14.72,-1.061 17.572,0.155"
             style="fill:none;stroke:#000000;stroke-width:3.17499995;stroke-linecap:round;stroke-linejoin:miter;stroke-miterlimit:4;stroke-opacity:1;stroke-dasharray:none"
             id="path534"
             inkscape:connector-curvature="0" /></g><g
           id="g536"
           transform="translate(2711.5503,1311.7607)"><path
             d="M 0,0 C -2.367,7.9 -6.346,38.461 -7.731,47.468"
             style="fill:none;stroke:#000000;stroke-width:3.03399992;stroke-linecap:round;stroke-linejoin:miter;stroke-miterlimit:4;stroke-opacity:1;stroke-dasharray:none"
             id="path538"
             inkscape:connector-curvature="0" /></g><g
           id="g540"
           transform="translate(2644.2832,1211.3242)"><path
             d="M 0,0 C 8.891,-13.65 15.275,-28.968 18.307,-45.09"
             style="fill:none;stroke:#000000;stroke-width:2.91599989;stroke-linecap:round;stroke-linejoin:miter;stroke-miterlimit:4;stroke-opacity:1;stroke-dasharray:none"
             id="path542"
             inkscape:connector-curvature="0" /></g><g
           id="g544"
           transform="translate(2688.1143,1150.7061)"><path
             d="m 0,0 c 1.375,0.683 1.671,3.642 1.788,5.534 0.665,10.758 2.004,23.82 4.538,35.259 1.05,4.741 1.5,7.076 4.988,10.493"
             style="fill:none;stroke:#000000;stroke-width:1.84000003;stroke-linecap:round;stroke-linejoin:miter;stroke-miterlimit:4;stroke-opacity:1;stroke-dasharray:none"
             id="path546"
             inkscape:connector-curvature="0" /></g><g
           id="g548"
           transform="translate(2699.4282,1201.9922)"><path
             d="M 0,0 C -5.02,3.945 -0.228,9.267 3.126,12.081"
             style="fill:none;stroke:#000000;stroke-width:2.55100012;stroke-linecap:round;stroke-linejoin:miter;stroke-miterlimit:4;stroke-opacity:1;stroke-dasharray:none"
             id="path550"
             inkscape:connector-curvature="0" /></g><g
           id="g552"
           transform="translate(2702.5547,1214.0732)"><path
             d="M 0,0 C -2.752,3.627 -3.799,8.663 -0.677,12.385"
             style="fill:none;stroke:#000000;stroke-width:2.27699995;stroke-linecap:round;stroke-linejoin:miter;stroke-miterlimit:4;stroke-opacity:1;stroke-dasharray:none"
             id="path554"
             inkscape:connector-curvature="0" /></g><g
           id="g556"
           transform="translate(2701.8779,1226.458)"><path
             d="m 0,0 c -3.21,2.088 -0.427,8.551 0.405,12.501 4.423,21 16.008,40.324 22.816,57.394 1.542,3.867 2.457,8.174 4.509,11.163"
             style="fill:none;stroke:#000000;stroke-width:2.02200007;stroke-linecap:round;stroke-linejoin:miter;stroke-miterlimit:4;stroke-opacity:1;stroke-dasharray:none"
             id="path558"
             inkscape:connector-curvature="0" /></g><g
           id="g560"
           transform="translate(2701.8779,1226.458)"><path
             d="M 0,0 C 5.121,0.629 12.803,-0.24 18.94,-0.658 37.53,-1.924 62.134,-3.182 80.655,-3.833"
             style="fill:none;stroke:#000000;stroke-width:1.55499995;stroke-linecap:round;stroke-linejoin:miter;stroke-miterlimit:4;stroke-opacity:1;stroke-dasharray:none"
             id="path562"
             inkscape:connector-curvature="0" /></g><g
           id="g564"
           transform="translate(2702.5547,1214.0732)"><path
             d="M 0,0 C 17.164,1.524 34.694,-2.883 52.03,-3.642"
             style="fill:none;stroke:#000000;stroke-width:1.69099998;stroke-linecap:round;stroke-linejoin:miter;stroke-miterlimit:4;stroke-opacity:1;stroke-dasharray:none"
             id="path566"
             inkscape:connector-curvature="0" /></g><g
           id="g568"
           transform="translate(2699.4282,1201.9922)"><path
             d="M 0,0 C 4.187,0.741 8.203,-1.11 12.359,-1.36"
             style="fill:none;stroke:#000000;stroke-width:2.02099991;stroke-linecap:round;stroke-linejoin:miter;stroke-miterlimit:4;stroke-opacity:1;stroke-dasharray:none"
             id="path570"
             inkscape:connector-curvature="0" /></g><g
           id="g572"
           transform="translate(2688.1885,1139.9688)"><path
             d="m 0,0 c 6.06,-6.888 0.4,-18.79 9.483,-22.001 3.069,-1.086 6.546,1.543 10.444,0.797"
             style="fill:none;stroke:#000000;stroke-width:1.95299995;stroke-linecap:round;stroke-linejoin:miter;stroke-miterlimit:4;stroke-opacity:1;stroke-dasharray:none"
             id="path574"
             inkscape:connector-curvature="0" /></g><g
           id="g576"
           transform="translate(2708.1152,1118.7646)"><path
             d="M 0,0 C 10.039,5.758 31.188,7.213 42.516,6.219"
             style="fill:none;stroke:#000000;stroke-width:2.22099996;stroke-linecap:round;stroke-linejoin:miter;stroke-miterlimit:4;stroke-opacity:1;stroke-dasharray:none"
             id="path578"
             inkscape:connector-curvature="0" /></g><g
           id="g580"
           transform="translate(2708.1152,1118.7646)"><path
             d="m 0,0 c 4.874,-3.227 7.949,-1.593 10.731,-4.041 2.695,-2.371 5.137,-4.263 7.24,-6.373 2.221,-2.23 7.28,-1.504 9.175,-5.615 1.558,-3.379 2.439,-7.094 2.125,-11.095 -0.519,-6.622 -4.125,-12.749 -4.075,-19.515 0.028,-3.82 1.156,-8.242 4.859,-12.861 1.781,-2.221 5.883,-6.321 9.415,-7.024"
             style="fill:none;stroke:#000000;stroke-width:1.44599998;stroke-linecap:round;stroke-linejoin:miter;stroke-miterlimit:4;stroke-opacity:1;stroke-dasharray:none"
             id="path582"
             inkscape:connector-curvature="0" /></g><g
           id="g584"
           transform="translate(2750.6309,1124.9834)"><path
             d="m 0,0 c 0.217,2.551 6.07,9.422 8.227,11.781 1.006,1.102 19.611,22.365 19.826,23.27"
             style="fill:none;stroke:#000000;stroke-width:1.773;stroke-linecap:round;stroke-linejoin:miter;stroke-miterlimit:4;stroke-opacity:1;stroke-dasharray:none"
             id="path586"
             inkscape:connector-curvature="0" /></g><g
           id="g588"
           transform="translate(2747.5854,1052.2402)"><path
             d="m 0,0 c 6.49,-6.641 19.928,-1.266 26.465,4.501 2.62,2.311 3.577,3.562 7.19,4.35 6.333,1.38 13.948,0.209 20.935,1.575 5.936,1.16 18.607,3.568 23.15,7.872 1.661,1.573 1.832,3.237 3.153,4.481 4.441,4.187 9.981,0.791 16.042,3.03 2.439,0.901 4.465,2.94 6.998,3.486 3.662,0.788 5.259,0.031 8.745,5.01 2.334,3.333 5.635,6.882 6.212,8.072 2.152,4.44 -2.377,11.139 1.954,13.945 4.24,2.747 7.583,2.822 6.418,7.988"
             style="fill:none;stroke:#000000;stroke-width:1.98300004;stroke-linecap:round;stroke-linejoin:miter;stroke-miterlimit:4;stroke-opacity:1;stroke-dasharray:none"
             id="path590"
             inkscape:connector-curvature="0" /></g><g
           id="g592"
           transform="translate(2874.8477,1116.5498)"><path
             d="m 0,0 c -10.471,7.325 -15.441,16.613 -29.693,14.916 -0.446,-0.053 -4.125,-1.029 -4.365,-0.941 -2.372,0.87 -7.471,18.801 -8.819,22.283 -3.475,8.972 -7.718,17.333 -11.838,26.886 -0.982,2.276 -3.938,10.861 -4.247,12.479"
             style="fill:none;stroke:#000000;stroke-width:1.99800003;stroke-linecap:round;stroke-linejoin:miter;stroke-miterlimit:4;stroke-opacity:1;stroke-dasharray:none"
             id="path594"
             inkscape:connector-curvature="0" /></g><g
           id="g596"
           transform="translate(2874.8477,1116.5498)"><path
             d="m 0,0 c 10.781,6.46 23.464,4.613 36.48,5.512 3.982,0.274 1.438,4.864 1.617,11.352 0.17,6.158 -1.091,15.523 -2.063,20.751 -1.506,8.112 -2.224,16.344 -4.118,24.271 -1.146,4.793 -3.572,9.216 -5.055,13.705 -0.991,3.001 -1.056,6.768 -2.806,8.917"
             style="fill:none;stroke:#000000;stroke-width:1.78299999;stroke-linecap:round;stroke-linejoin:miter;stroke-miterlimit:4;stroke-opacity:1;stroke-dasharray:none"
             id="path598"
             inkscape:connector-curvature="0" /></g><g
           id="g600"
           transform="translate(2898.9023,1201.0576)"><path
             d="M 0,0 C -3.023,-0.639 -6.15,-2.71 -9.125,-2.225"
             style="fill:none;stroke:#000000;stroke-width:1.82599998;stroke-linecap:round;stroke-linejoin:miter;stroke-miterlimit:4;stroke-opacity:1;stroke-dasharray:none"
             id="path602"
             inkscape:connector-curvature="0" /></g><g
           id="g604"
           transform="translate(2898.9023,1201.0576)"><path
             d="M 0,0 C 2.398,2.922 3.806,7.123 2.383,10.852"
             style="fill:none;stroke:#000000;stroke-width:2.54500008;stroke-linecap:round;stroke-linejoin:miter;stroke-miterlimit:4;stroke-opacity:1;stroke-dasharray:none"
             id="path606"
             inkscape:connector-curvature="0" /></g><g
           id="g608"
           transform="translate(2900.584,1212.1143)"><path
             d="M 0,0 C -45.587,-3.974 -100.177,-4.395 -145.999,-1.683"
             style="fill:none;stroke:#000000;stroke-width:2.06100011;stroke-linecap:round;stroke-linejoin:miter;stroke-miterlimit:4;stroke-opacity:1;stroke-dasharray:none"
             id="path610"
             inkscape:connector-curvature="0" /></g><g
           id="g612"
           transform="translate(2899.0137,1228.2852)"><path
             d="M 0,0 C -37.679,-12.929 -78.825,-4.975 -118.03,-5.054"
             style="fill:none;stroke:#000000;stroke-width:1.93299997;stroke-linecap:round;stroke-linejoin:miter;stroke-miterlimit:4;stroke-opacity:1;stroke-dasharray:none"
             id="path614"
             inkscape:connector-curvature="0" /></g><g
           id="g616"
           transform="translate(2847.2949,1318.7979)"><path
             d="M 0,0 C 8.146,-3.278 17.708,0.61 25.95,-0.238"
             style="fill:none;stroke:#000000;stroke-width:1.75899994;stroke-linecap:round;stroke-linejoin:miter;stroke-miterlimit:4;stroke-opacity:1;stroke-dasharray:none"
             id="path618"
             inkscape:connector-curvature="0" /></g><g
           id="g620"
           transform="translate(2758.9849,1645.6084)"><path
             d="M 0,0 C 2.094,1.111 4.036,2.439 6,3.6"
             style="fill:none;stroke:#000000;stroke-width:0.73799998;stroke-linecap:round;stroke-linejoin:miter;stroke-miterlimit:4;stroke-opacity:1;stroke-dasharray:none"
             id="path622"
             inkscape:connector-curvature="0" /></g><g
           id="g624"
           transform="translate(2784.6465,1594.5576)"><path
             d="m 0,0 c -7.144,5.105 -14.963,29.925 -26.145,27.912 -5.505,-0.992 -9.699,-6.277 -15.918,-6.922 2.343,-3.462 0.445,-7.822 1.427,-13.753 1.461,-8.82 8.595,-12.793 15.209,-15.895 6.054,-2.84 11.597,-3.195 17.472,2.051 2.479,2.213 3.564,5.227 7.992,5.961"
             style="fill:none;stroke:#000000;stroke-width:2.3499999;stroke-linecap:round;stroke-linejoin:miter;stroke-miterlimit:4;stroke-opacity:1;stroke-dasharray:none"
             id="path626"
             inkscape:connector-curvature="0" /></g><g
           id="g628"
           transform="translate(2739.3813,1501.7168)"><path
             d="M 0,0 C 0,0 -13.626,4.619 -12.009,11.316"
             style="fill:none;stroke:#000000;stroke-width:3;stroke-linecap:butt;stroke-linejoin:miter;stroke-miterlimit:4;stroke-opacity:1;stroke-dasharray:none"
             id="path630"
             inkscape:connector-curvature="0" /></g><g
           id="g632"
           transform="translate(3014.2529,1176.8584)"><path
             d="m 0,0 -25.391,0 10e-4,252.544 25.391,0 L 0,0 z"
             style="fill:none;stroke:#000000;stroke-width:3;stroke-linecap:butt;stroke-linejoin:miter;stroke-miterlimit:4;stroke-opacity:1;stroke-dasharray:none"
             id="path634"
             inkscape:connector-curvature="0" /></g><text
           transform="matrix(1,0,0,-1,3030.0771,1415.958)"
           id="text636"><tspan
             style="font-size:32px;font-variant:normal;font-weight:normal;font-stretch:normal;writing-mode:lr-tb;fill:#000000;fill-opacity:1;fill-rule:nonzero;stroke:none;font-family:Myriad Pro;-inkscape-font-specification:MyriadPro-Regular"
             x="0"
             y="0"
             id="tspan638">0</tspan><tspan
             style="font-size:32px;font-variant:normal;font-weight:normal;font-stretch:normal;writing-mode:lr-tb;fill:#000000;fill-opacity:1;fill-rule:nonzero;stroke:none;font-family:Myriad Pro;-inkscape-font-specification:MyriadPro-Regular"
             x="8.8000002 25.216 32 46.335999"
             y="240.864"
             sodipodi:role="line"
             id="tspan640">1 cm</tspan></text>
<g
           id="g642"
           transform="translate(2689.9028,1138.1973)"><path
             d="M 0,0 C 0,0 -0.539,3.232 0,15.624"
             style="fill:none;stroke:#000000;stroke-width:2;stroke-linecap:round;stroke-linejoin:miter;stroke-miterlimit:4;stroke-opacity:1;stroke-dasharray:none"
             id="path644"
             inkscape:connector-curvature="0" /></g></g></g></g></svg>
